Sorting Codes,Ticker
#,4902 JP Equity
#,005930 KS Equity
#,AC PM Equity
#,ROSN RM Equity
#,2881 TT Equity
#,3481 TT Equity
#,TGT US Equity
#,IPL SJ Equity
#,CLH SJ Equity
#,1658 HK Equity
#,INFO IN Equity
#,1662 JP Equity
#,2914 JP Equity
#,8604 JP Equity
#,8566 JP Equity
#,010140 KS Equity
#,PTT TB Equity
#,ALL US Equity
#,SPGI US Equity
#,WELL US Equity
c,ADCB UH Equity
c,941 HK Equity
c,ANTM IJ Equity
c,021240 KS Equity
c,ABP AU Equity
c,AGL AU Equity
c,AHY AU Equity
c,AMC AU Equity
c,ANZ AU Equity
c,BHP AU Equity
c,BPT AU Equity
c,BSL AU Equity
c,BWP AU Equity
c,BXB AU Equity
c,CBA AU Equity
c,CCL AU Equity
c,CGC AU Equity
c,CIM AU Equity
c,CSR AU Equity
c,CTX AU Equity
c,CWN AU Equity
c,DOW AU Equity
c,DXS AU Equity
c,EVN AU Equity
c,GNC AU Equity
c,GOZ AU Equity
c,GPT AU Equity
c,IAG AU Equity
c,IFN AU Equity
c,IGO AU Equity
c,IPL AU Equity
c,LLC AU Equity
c,MQG AU Equity
c,MYR AU Equity
c,NAB AU Equity
c,NCM AU Equity
c,NST AU Equity
c,NUF AU Equity
c,NXT AU Equity
c,ORG AU Equity
c,OZL AU Equity
c,PGH AU Equity
c,QAN AU Equity
c,QBE AU Equity
c,RIO AU Equity
c,RSG AU Equity
c,S32 AU Equity
c,SAR AU Equity
c,SCG AU Equity
c,SCP AU Equity
c,SFR AU Equity
c,SGM AU Equity
c,SGP AU Equity
c,SKI AU Equity
c,STO AU Equity
c,SUN AU Equity
c,SYD AU Equity
c,TAH AU Equity
c,TCL AU Equity
c,TLS AU Equity
c,VCX AU Equity
c,VRL AU Equity
c,WBC AU Equity
c,OSH AU Equity
c,B3SA3 BZ Equity
c,BBDC4 BZ Equity
c,BRFS3 BZ Equity
c,BRKM3 BZ Equity
c,CCRO3 BZ Equity
c,CESP3 BZ Equity
c,CLSC4 BZ Equity
c,CMIG3 BZ Equity
c,CPFE3 BZ Equity
c,CPLE3 BZ Equity
c,CPRE3 BZ Equity
c,CSMG3 BZ Equity
c,CSNA3 BZ Equity
c,ECOR3 BZ Equity
c,EGIE3 BZ Equity
c,ELET3 BZ Equity
c,EMBR3 BZ Equity
c,ENBR3 BZ Equity
c,FIBR3 BZ Equity
c,FLRY3 BZ Equity
c,GOLL4 BZ Equity
c,HYPE3 BZ Equity
c,ITUB4 BZ Equity
c,JBSS3 BZ Equity
c,KLBN3 BZ Equity
c,LAME4 BZ Equity
c,LIGT3 BZ Equity
c,LREN3 BZ Equity
c,MRFG3 BZ Equity
c,MRVE3 BZ Equity
c,NATU3 BZ Equity
c,ODPV3 BZ Equity
c,OIBR3 BZ Equity
c,PCAR4 BZ Equity
c,PETR4 BZ Equity
c,PMAM3 BZ Equity
c,RAIL3 BZ Equity
c,RANI3 BZ Equity
c,SANB3 BZ Equity
c,SMTO3 BZ Equity
c,SSBR3 BZ Equity
c,SULA11 BZ Equity
c,TIET11 BZ Equity
c,TIMP3 BZ Equity
c,TPIS3 BZ Equity
c,TRPL4 BZ Equity
c,UGPA3 BZ Equity
c,USIM3 BZ Equity
c,VALE3 BZ Equity
c,VIVT4 BZ Equity
c,AEM CN Equity
c,BCE CN Equity
c,DOO CN Equity
c,BMO CN Equity
c,BNS CN Equity
c,ABX CN Equity
c,CAE CN Equity
c,CCO CN Equity
c,CM CN Equity
c,CNQ CN Equity
c,CP CN Equity
c,CS CN Equity
c,CCA CN Equity
c,DGC CN Equity
c,DPM CN Equity
c,ELD CN Equity
c,ERF CN Equity
c,FCR CN Equity
c,FM CN Equity
c,G CN Equity
c,HBM CN Equity
c,HBC CN Equity
c,HSE CN Equity
c,IGM CN Equity
c,IMG CN Equity
c,IFC CN Equity
c,K CN Equity
c,L CN Equity
c,LUC CN Equity
c,LUN CN Equity
c,MFC CN Equity
c,OGC CN Equity
c,PXT CN Equity
c,RY CN Equity
c,SLF CN Equity
c,T CN Equity
c,TD CN Equity
c,TA CN Equity
c,WFT CN Equity
c,RLD SW Equity
c,SCMN SW Equity
c,GIVN SW Equity
c,DOKA SW Equity
c,NOVN SW Equity
c,ROG SW Equity
c,CLN SW Equity
c,LHN SW Equity
c,SOON SW Equity
c,LONN SW Equity
c,SLHN SW Equity
c,SCHP SW Equity
c,SUN SW Equity
c,NESN SW Equity
c,MCHN SW Equity
c,BAER SW Equity
c,UBSG SW Equity
c,SIKA SW Equity
c,LTM CI Equity
c,ENELDXCH CI Equity
c,CCU CI Equity
c,COLBUN CI Equity
c,ANDINAA CI Equity
c,ENTEL CI Equity
c,ENELAM CI Equity
c,PARAUCO CI Equity
c,COPEC CI Equity
c,SOQUIC CI Equity
c,900948 CH Equity
c,600309 CH Equity
c,601601 CH Equity
c,601788 CH Equity
c,601818 CH Equity
c,601211 CH Equity
c,BCOLO CB Equity
c,ECOPETL CB Equity
c,CEMARGOS CB Equity
c,ISA CB Equity
c,TERPEL CB Equity
c,PROMIG CB Equity
c,ETB CB Equity
c,BVC CB Equity
c,NUTRESA CB Equity
c,GRUPOARG CB Equity
c,GRUPOSUR CB Equity
c,PFAVH CB Equity
c,MAERSKB DC Equity
c,BAVA DC Equity
c,DSV DC Equity
c,CHR DC Equity
c,NZYMB DC Equity
c,COLOB DC Equity
c,RBI AV Equity
c,EBS AV Equity
c,TKA AV Equity
c,OMV AV Equity
c,VER AV Equity
c,PAL AV Equity
c,SOLB BB Equity
c,KBC BB Equity
c,COFB BB Equity
c,BEFB BB Equity
c,PROX BB Equity
c,EURN BB Equity
c,ABI BB Equity
c,NYR BB Equity
c,DBK GR Equity
c,BMW GR Equity
c,BEI GR Equity
c,EBK GR Equity
c,LXS GR Equity
c,DPW GR Equity
c,DTE GR Equity
c,FRA GR Equity
c,FRE GR Equity
c,DB1 GR Equity
c,1COV GR Equity
c,HOT GR Equity
c,IFX GR Equity
c,DEZ GR Equity
c,MRK GR Equity
c,G1A GR Equity
c,DAI GR Equity
c,SRT GR Equity
c,SIE GR Equity
c,TKA GR Equity
c,VOW GR Equity
c,MTX GR Equity
c,MVV1 GR Equity
c,DWNI GR Equity
c,AOX GR Equity
c,ADS GR Equity
c,VNA GR Equity
c,BOSS GR Equity
c,IGY GR Equity
c,BAS GR Equity
c,EOAN GR Equity
c,EVK GR Equity
c,PSM GR Equity
c,SHA GR Equity
c,SY1 GR Equity
c,UN01 GR Equity
c,CLNX SM Equity
c,ABG SM Equity
c,GEST SM Equity
c,AMS SM Equity
c,BBVA SM Equity
c,SAB SM Equity
c,SAN SM Equity
c,BME SM Equity
c,NTGY SM Equity
c,GCO SM Equity
c,FER SM Equity
c,FCC SM Equity
c,MAP SM Equity
c,ANA SM Equity
c,ELE SM Equity
c,SGRE SM Equity
c,IBE SM Equity
c,ACS SM Equity
c,PRS SM Equity
c,GRF SM Equity
c,REE SM Equity
c,REP SM Equity
c,PSG SM Equity
c,IAG LN Equity
c,TRE SM Equity
c,TEF SM Equity
c,FLY FP Equity
c,ICAD FP Equity
c,BOL FP Equity
c,ACA FP Equity
c,COM FP Equity
c,TFI FP Equity
c,RAL FP Equity
c,ODET FP Equity
c,SAF FP Equity
c,DEC FP Equity
c,AI FP Equity
c,CA FP Equity
c,CNP FP Equity
c,FP FP Equity
c,AC FP Equity
c,SAN FP Equity
c,CS FP Equity
c,BN FP Equity
c,KN FP Equity
c,RI FP Equity
c,NK FP Equity
c,BB FP Equity
c,MC FP Equity
c,RF FP Equity
c,HO FP Equity
c,KER FP Equity
c,UG FP Equity
c,EL FP Equity
c,AM FP Equity
c,FBEL FP Equity
c,LI FP Equity
c,SU FP Equity
c,VIE FP Equity
c,POM FP Equity
c,UL NA Equity
c,SGO FP Equity
c,CAP FP Equity
c,ING FP Equity
c,CO FP Equity
c,VIV FP Equity
c,MMB FP Equity
c,RCO FP Equity
c,CDI FP Equity
c,PUB FP Equity
c,DSY FP Equity
c,GLE FP Equity
c,BNP FP Equity
c,RNO FP Equity
c,ILD FP Equity
c,GFC FP Equity
c,ENGI FP Equity
c,ALO FP Equity
c,IPN FP Equity
c,AKE FP Equity
c,RXL FP Equity
c,EDEN FP Equity
c,ELIS FP Equity
c,EUCAR FP Equity
c,FR FP Equity
c,CGG FP Equity
c,HTO GA Equity
c,CRH ID Equity
c,IFP ID Equity
c,G IM Equity
c,BPE IM Equity
c,ISP IM Equity
c,SO IM Equity
c,ACE IM Equity
c,A2A IM Equity
c,LUX IM Equity
c,CEM IM Equity
c,ENEL IM Equity
c,ENI IM Equity
c,SRG IM Equity
c,TRN IM Equity
c,AST IM Equity
c,UBI IM Equity
c,TIT IM Equity
c,ATL IM Equity
c,LDO IM Equity
c,SAL IM Equity
c,PRY IM Equity
c,SFER IM Equity
c,US IM Equity
c,UCG IM Equity
c,SPM IM Equity
c,PIRC IM Equity
c,IGD IM Equity
c,KPN NA Equity
c,UNA NA Equity
c,PHIA NA Equity
c,STM IM Equity
c,SBMO NA Equity
c,RENT NA Equity
c,CSTM US Equity
c,FCAU US Equity
c,AD NA Equity
c,INGA NA Equity
c,AKZA NA Equity
c,KESKOB FH Equity
c,AMEAS FH Equity
c,NOKIA FH Equity
c,CTY1S FH Equity
c,STERV FH Equity
c,TPS1V FH Equity
c,FORTUM FH Equity
c,ELISA FH Equity
c,KNEBV FH Equity
c,NDA SS Equity
c,HSX LN Equity
c,PDL LN Equity
c,SDY LN Equity
c,ANTO LN Equity
c,AHT LN Equity
c,AVON LN Equity
c,BDEV LN Equity
c,BWY LN Equity
c,CSRT LN Equity
c,BBY LN Equity
c,TED LN Equity
c,BLND LN Equity
c,TLW LN Equity
c,CML LN Equity
c,JDW LN Equity
c,CAM LN Equity
c,BRW LN Equity
c,DPLM LN Equity
c,GNS LN Equity
c,RAT LN Equity
c,SDR LN Equity
c,ELM LN Equity
c,DCG LN Equity
c,DLN LN Equity
c,DVO LN Equity
c,BYG LN Equity
c,BATS LN Equity
c,ECM LN Equity
c,SXS LN Equity
c,FSJ LN Equity
c,FGP LN Equity
c,GOG LN Equity
c,HLMA LN Equity
c,STAN LN Equity
c,HAS LN Equity
c,HILS LN Equity
c,PAF LN Equity
c,IMB LN Equity
c,KLR LN Equity
c,KIE LN Equity
c,JLT LN Equity
c,HWDN LN Equity
c,MRW LN Equity
c,NEX LN Equity
c,ABF LN Equity
c,PSON LN Equity
c,ERM LN Equity
c,PRU LN Equity
c,RIO LN Equity
c,RPC LN Equity
c,RDW LN Equity
c,SMP LN Equity
c,RSW LN Equity
c,RCDO LN Equity
c,RPS LN Equity
c,CBG LN Equity
c,SSE LN Equity
c,SNR LN Equity
c,SRP LN Equity
c,SHB LN Equity
c,RWI LN Equity
c,SHI LN Equity
c,LLOY LN Equity
c,TATE LN Equity
c,TEP LN Equity
c,TSCO LN Equity
c,RCH LN Equity
c,GSK LN Equity
c,VCT LN Equity
c,VTC LN Equity
c,DMGT LN Equity
c,BAB LN Equity
c,AZN LN Equity
c,ASC LN Equity
c,CCL LN Equity
c,MKS LN Equity
c,BARC LN Equity
c,WMH LN Equity
c,BRBY LN Equity
c,NXT LN Equity
c,BMY LN Equity
c,VED LN Equity
c,ITV LN Equity
c,MSLH LN Equity
c,HFD LN Equity
c,SBRY LN Equity
c,GFS LN Equity
c,BKG LN Equity
c,PAY LN Equity
c,CNA LN Equity
c,STOB LN Equity
c,RDSA LN Equity
c,GRI LN Equity
c,IGG LN Equity
c,BNZL LN Equity
c,COB LN Equity
c,RTO LN Equity
c,HLCL LN Equity
c,GNK LN Equity
c,BVIC LN Equity
c,RTN LN Equity
c,ULVR LN Equity
c,DEB LN Equity
c,ASHM LN Equity
c,SVS LN Equity
c,CMCX LN Equity
c,INVP LN Equity
c,TPT LN Equity
c,PNN LN Equity
c,PZC LN Equity
c,MNDI LN Equity
c,SVT LN Equity
c,MAB LN Equity
c,BBA LN Equity
c,RNK LN Equity
c,SAFE LN Equity
c,BWNG LN Equity
c,SPD LN Equity
c,DRX LN Equity
c,TCG LN Equity
c,SMIN LN Equity
c,AAL LN Equity
c,III LN Equity
c,CPI LN Equity
c,OPHR LN Equity
c,REL LN Equity
c,SMWH LN Equity
c,DLAR LN Equity
c,BOY LN Equity
c,OCDO LN Equity
c,NTG LN Equity
c,PMO LN Equity
c,CHG LN Equity
c,FLYB LN Equity
c,LMP LN Equity
c,TALK LN Equity
c,COA LN Equity
c,JUP LN Equity
c,SDRY LN Equity
c,ACA LN Equity
c,CAPC LN Equity
c,GRG LN Equity
c,BAG LN Equity
c,SGC LN Equity
c,EVR LN Equity
c,CNE LN Equity
c,PFD LN Equity
c,VSVS LN Equity
c,EMG LN Equity
c,SGE LN Equity
c,MDC LN Equity
c,CRST LN Equity
c,LBTYA US Equity
c,AVV LN Equity
c,JUST LN Equity
c,CYBG LN Equity
c,CPG LN Equity
c,NRR LN Equity
c,CCEP US Equity
c,RMG LN Equity
c,CLI LN Equity
c,GPOR LN Equity
c,SSPG LN Equity
c,PHNX LN Equity
c,BHP LN Equity
c,VOD LN Equity
c,PETS LN Equity
c,AY US Equity
c,SAGA LN Equity
c,CARD LN Equity
c,GMD LN Equity
c,GLE LN Equity
c,DFS LN Equity
c,ROR LN Equity
c,IGT US Equity
c,AUTO LN Equity
c,MCS LN Equity
c,ICP LN Equity
c,LAND LN Equity
c,HSV LN Equity
c,SCT LN Equity
c,SOPH LN Equity
c,ARRS US Equity
c,MRO LN Equity
c,DCC LN Equity
c,GNC LN Equity
c,PPB LN Equity
c,PTEC LN Equity
c,RDI LN Equity
c,SHP LN Equity
c,GLEN LN Equity
c,POLY LN Equity
c,FERG LN Equity
c,BME LN Equity
c,MT NA Equity
c,341 HK Equity
c,116 HK Equity
c,1205 HK Equity
c,1199 HK Equity
c,330 HK Equity
c,787 HK Equity
c,41 HK Equity
c,179 HK Equity
c,683 HK Equity
c,709 HK Equity
c,517 HK Equity
c,303 HK Equity
c,532 HK Equity
c,3993 HK Equity
c,2628 HK Equity
c,386 HK Equity
c,728 HK Equity
c,317 HK Equity
c,2318 HK Equity
c,2899 HK Equity
c,1099 HK Equity
c,2607 HK Equity
c,1339 HK Equity
c,6881 HK Equity
c,2202 HK Equity
c,54 HK Equity
c,1972 HK Equity
c,1299 HK Equity
c,4 HK Equity
c,6 HK Equity
c,8 HK Equity
c,12 HK Equity
c,16 HK Equity
c,17 HK Equity
c,23 HK Equity
c,27 HK Equity
c,45 HK Equity
c,83 HK Equity
c,165 HK Equity
c,200 HK Equity
c,242 HK Equity
c,257 HK Equity
c,308 HK Equity
c,388 HK Equity
c,440 HK Equity
c,604 HK Equity
c,883 HK Equity
c,992 HK Equity
c,2388 HK Equity
c,3808 HK Equity
c,INTP IJ Equity
c,PGAS IJ Equity
c,ICL IT Equity
c,TEVA IT Equity
c,POLI IT Equity
c,SKBN IT Equity
c,GESCO IN Equity
c,LT IN Equity
c,JSTL IN Equity
c,APNT IN Equity
c,BPCL IN Equity
c,HNDL IN Equity
c,SRCM IN Equity
c,DRRD IN Equity
c,TTCH IN Equity
c,HPCL IN Equity
c,GCPL IN Equity
c,ABB IN Equity
c,GAIL IN Equity
c,ITC IN Equity
c,VEDL IN Equity
c,ONGC IN Equity
c,AXSB IN Equity
c,BHEL IN Equity
c,TCS IN Equity
c,UTCEM IN Equity
c,MSIL IN Equity
c,TECHM IN Equity
c,ADSEZ IN Equity
c,MMFS IN Equity
c,3283 JP Equity
c,2502 JP Equity
c,4062 JP Equity
c,6925 JP Equity
c,9613 JP Equity
c,3861 JP Equity
c,6645 JP Equity
c,8591 JP Equity
c,7733 JP Equity
c,4452 JP Equity
c,2503 JP Equity
c,6326 JP Equity
c,7251 JP Equity
c,1605 JP Equity
c,7984 JP Equity
c,6753 JP Equity
c,9104 JP Equity
c,4063 JP Equity
c,6967 JP Equity
c,4185 JP Equity
c,7269 JP Equity
c,5802 JP Equity
c,6724 JP Equity
c,9735 JP Equity
c,6758 JP Equity
c,8233 JP Equity
c,4508 JP Equity
c,1878 JP Equity
c,7735 JP Equity
c,4519 JP Equity
c,8795 JP Equity
c,4186 JP Equity
c,9531 JP Equity
c,5332 JP Equity
c,4634 JP Equity
c,5105 JP Equity
c,7913 JP Equity
c,1860 JP Equity
c,7911 JP Equity
c,4091 JP Equity
c,6701 JP Equity
c,9432 JP Equity
c,2282 JP Equity
c,4307 JP Equity
c,8359 JP Equity
c,6773 JP Equity
c,4217 JP Equity
c,6501 JP Equity
c,6702 JP Equity
c,5108 JP Equity
c,9783 JP Equity
c,7267 JP Equity
c,6752 JP Equity
c,8252 JP Equity
c,8031 JP Equity
c,3099 JP Equity
c,4188 JP Equity
c,5711 JP Equity
c,4503 JP Equity
c,7951 JP Equity
c,8113 JP Equity
c,7752 JP Equity
c,2651 JP Equity
c,000150 KS Equity
c,000270 KS Equity
c,000660 KS Equity
c,000720 KS Equity
c,000810 KS Equity
c,001230 KS Equity
c,002380 KS Equity
c,002790 KS Equity
c,003490 KS Equity
c,004000 KS Equity
c,004020 KS Equity
c,005380 KS Equity
c,005490 KS Equity
c,005830 KS Equity
c,005940 KS Equity
c,006360 KS Equity
c,006400 KS Equity
c,009150 KS Equity
c,017810 KS Equity
c,028050 KS Equity
c,028260 KS Equity
c,032640 KS Equity
c,032830 KS Equity
c,034020 KS Equity
c,034220 KS Equity
c,035250 KS Equity
c,036460 KS Equity
c,047040 KS Equity
c,051910 KS Equity
c,055550 KS Equity
c,066570 KS Equity
c,069260 KS Equity
c,086790 KS Equity
c,096770 KS Equity
c,105560 KS Equity
c,138930 KS Equity
c,139130 KS Equity
c,161390 KS Equity
c,2020 HK Equity
c,5871 TT Equity
c,3311 HK Equity
c,2007 HK Equity
c,3800 HK Equity
c,175 HK Equity
c,1044 HK Equity
c,528 HK Equity
c,2282 HK Equity
c,1316 HK Equity
c,1928 HK Equity
c,178 HK Equity
c,2382 HK Equity
c,700 HK Equity
c,1128 HK Equity
c,AGUA* MM Equity
c,ALEATIC* MM Equity
c,ELEKTRA* MM Equity
c,IENOVA* MM Equity
c,MEXCHEM* MM Equity
c,NEMAKA MM Equity
c,OMAB MM Equity
c,WALMEX* MM Equity
c,DANHOS13 MM Equity
c,ALFAA MM Equity
c,AMXL MM Equity
c,CEMEXCPO MM Equity
c,KOFL MM Equity
c,GFNORTEO MM Equity
c,GMEXICOB MM Equity
c,BIMBOA MM Equity
c,KIMBERA MM Equity
c,IOI MK Equity
c,GENP MK Equity
c,ROTH MK Equity
c,GENM MK Equity
c,T MK Equity
c,UEMS MK Equity
c,PCHEM MK Equity
c,PETD MK Equity
c,AXIATA MK Equity
c,BAKKA NO Equity
c,SCHA NO Equity
c,KOG NO Equity
c,MOWI NO Equity
c,ORK NO Equity
c,NHY NO Equity
c,EQNR NO Equity
c,YAR NO Equity
c,SALM NO Equity
c,AKERBP NO Equity
c,BRG NO Equity
c,SSO NO Equity
c,AIR NZ Equity
c,FSF NZ Equity
c,KMD NZ Equity
c,SAN NZ Equity
c,ICT PM Equity
c,SM PM Equity
c,PLZL RM Equity
c,SABIC AB Equity
c,FOIB SS Equity
c,ELUXB SS Equity
c,SKFB SS Equity
c,ERICB SS Equity
c,SKAB SS Equity
c,SSABA SS Equity
c,INDUA SS Equity
c,SWEDA SS Equity
c,SWMA SS Equity
c,CAST SS Equity
c,MTGB SS Equity
c,JM SS Equity
c,LUPE SS Equity
c,BILL SS Equity
c,NOBI SS Equity
c,HUSQB SS Equity
c,LOOMB SS Equity
c,TEL2B SS Equity
c,SHBA SS Equity
c,KINDSDB SS Equity
c,SMM SP Equity
c,CAPL SP Equity
c,CIT SP Equity
c,ST SP Equity
c,FLEX US Equity
c,GENS SP Equity
c,SCC TB Equity
c,SCB TB Equity
c,CPF TB Equity
c,MINT TB Equity
c,ADVANC TB Equity
c,PTTEP TB Equity
c,TU TB Equity
c,CPN TB Equity
c,DELTA TB Equity
c,RATCH TB Equity
c,TOP TB Equity
c,IVL TB Equity
c,PTTGC TB Equity
c,AKBNK TI Equity
c,ARCLK TI Equity
c,AYGAZ TI Equity
c,GARAN TI Equity
c,ISCTR TI Equity
c,FROTO TI Equity
c,TOASO TI Equity
c,ENKAI TI Equity
c,MGROS TI Equity
c,ULKER TI Equity
c,1102 TT Equity
c,1216 TT Equity
c,1219 TT Equity
c,1304 TT Equity
c,1305 TT Equity
c,1308 TT Equity
c,1309 TT Equity
c,1312 TT Equity
c,1314 TT Equity
c,1402 TT Equity
c,1440 TT Equity
c,1455 TT Equity
c,1476 TT Equity
c,1605 TT Equity
c,1609 TT Equity
c,1701 TT Equity
c,1702 TT Equity
c,1711 TT Equity
c,1713 TT Equity
c,1717 TT Equity
c,1718 TT Equity
c,1721 TT Equity
c,1722 TT Equity
c,1723 TT Equity
c,1724 TT Equity
c,1725 TT Equity
c,1762 TT Equity
c,1773 TT Equity
c,1904 TT Equity
c,1905 TT Equity
c,2002 TT Equity
c,2006 TT Equity
c,2013 TT Equity
c,2015 TT Equity
c,2023 TT Equity
c,2049 TT Equity
c,2059 TT Equity
c,2103 TT Equity
c,2204 TT Equity
c,2206 TT Equity
c,2207 TT Equity
c,2301 TT Equity
c,2303 TT Equity
c,2308 TT Equity
c,2312 TT Equity
c,2313 TT Equity
c,2324 TT Equity
c,2330 TT Equity
c,2337 TT Equity
c,2349 TT Equity
c,2352 TT Equity
c,2353 TT Equity
c,2354 TT Equity
c,2356 TT Equity
c,2362 TT Equity
c,2371 TT Equity
c,2376 TT Equity
c,2377 TT Equity
c,2382 TT Equity
c,2385 TT Equity
c,2392 TT Equity
c,2393 TT Equity
c,2408 TT Equity
c,2412 TT Equity
c,2439 TT Equity
c,2448 TT Equity
c,2449 TT Equity
c,2498 TT Equity
c,2603 TT Equity
c,2610 TT Equity
c,2618 TT Equity
c,2633 TT Equity
c,2740 TT Equity
c,2801 TT Equity
c,2809 TT Equity
c,2812 TT Equity
c,2823 TT Equity
c,2851 TT Equity
c,2880 TT Equity
c,2882 TT Equity
c,2883 TT Equity
c,2884 TT Equity
c,2885 TT Equity
c,2886 TT Equity
c,2887 TT Equity
c,2888 TT Equity
c,2891 TT Equity
c,2892 TT Equity
c,2912 TT Equity
c,3034 TT Equity
c,3045 TT Equity
c,3152 TT Equity
c,3231 TT Equity
c,3264 TT Equity
c,3519 TT Equity
c,3704 TT Equity
c,3706 TT Equity
c,4152 TT Equity
c,4725 TT Equity
c,4755 TT Equity
c,4915 TT Equity
c,4938 TT Equity
c,5209 TT Equity
c,5371 TT Equity
c,5880 TT Equity
c,6005 TT Equity
c,6116 TT Equity
c,6176 TT Equity
c,6196 TT Equity
c,6244 TT Equity
c,6263 TT Equity
c,6285 TT Equity
c,6409 TT Equity
c,6506 TT Equity
c,8105 TT Equity
c,8110 TT Equity
c,8131 TT Equity
c,8201 TT Equity
c,8271 TT Equity
c,8299 TT Equity
c,8454 TT Equity
c,8464 TT Equity
c,9904 TT Equity
c,9907 TT Equity
c,9910 TT Equity
c,9917 TT Equity
c,DPW DU Equity
c,SLB US Equity
c,G US Equity
c,INFO US Equity
c,IVZ US Equity
c,CB US Equity
c,TEL US Equity
c,ACN US Equity
c,ALKS US Equity
c,IR US Equity
c,ETN US Equity
c,AGN US Equity
c,RCL US Equity
c,TIGO US Equity
c,CCL US Equity
c,ABM US Equity
c,AES US Equity
c,T US Equity
c,ABT US Equity
c,ABBV US Equity
c,ACM US Equity
c,AA US Equity
c,ADS US Equity
c,GOOGL US Equity
c,MO US Equity
c,AEE US Equity
c,AAL US Equity
c,AEP US Equity
c,AXP US Equity
c,APC US Equity
c,ANTM US Equity
c,APA US Equity
c,AAPL US Equity
c,ATR US Equity
c,ADM US Equity
c,AIZ US Equity
c,ALV US Equity
c,AVB US Equity
c,BHGE US Equity
c,BLL US Equity
c,BAC US Equity
c,BK US Equity
c,BDX US Equity
c,BERY US Equity
c,BIIB US Equity
c,BXP US Equity
c,BMY US Equity
c,CBRE US Equity
c,CF US Equity
c,CI US Equity
c,CVS US Equity
c,CBT US Equity
c,CZR US Equity
c,CPB US Equity
c,COF US Equity
c,CAH US Equity
c,CAT US Equity
c,CE US Equity
c,CVX US Equity
c,CSCO US Equity
c,C US Equity
c,CLX US Equity
c,CL US Equity
c,CMA US Equity
c,COMM US Equity
c,COP US Equity
c,ED US Equity
c,CMI US Equity
c,DAL US Equity
c,DVN US Equity
c,DIS US Equity
c,DWDP US Equity
c,EMN US Equity
c,EBAY US Equity
c,ECL US Equity
c,EIX US Equity
c,EW US Equity
c,EMR US Equity
c,ETR US Equity
c,EQIX US Equity
c,EQR US Equity
c,ES US Equity
c,EXC US Equity
c,FMC US Equity
c,FB US Equity
c,FDX US Equity
c,FE US Equity
c,FLR US Equity
c,FLO US Equity
c,FCX US Equity
c,GPS US Equity
c,GIS US Equity
c,GM US Equity
c,GNTX US Equity
c,GS US Equity
c,GT US Equity
c,GEF US Equity
c,GES US Equity
c,HCP US Equity
c,HPQ US Equity
c,HAL US Equity
c,HASI US Equity
c,HAS US Equity
c,HSY US Equity
c,HPE US Equity
c,HD US Equity
c,HRL US Equity
c,HST US Equity
c,HUN US Equity
c,H US Equity
c,ITW US Equity
c,INFN US Equity
c,INTC US Equity
c,IBM US Equity
c,IFF US Equity
c,IP US Equity
c,IRM US Equity
c,JPM US Equity
c,JBL US Equity
c,JBLU US Equity
c,JNJ US Equity
c,JLL US Equity
c,KSU US Equity
c,KEY US Equity
c,KRC US Equity
c,KMB US Equity
c,KSS US Equity
c,KR US Equity
c,LRCX US Equity
c,LVS US Equity
c,LLY US Equity
c,LOW US Equity
c,MRO US Equity
c,MAR US Equity
c,MCD US Equity
c,MRK US Equity
c,MET US Equity
c,MTD US Equity
c,MSFT US Equity
c,TAP US Equity
c,MOS US Equity
c,MSI US Equity
c,NEM US Equity
c,NWSA US Equity
c,NXEO US Equity
c,NKE US Equity
c,NI US Equity
c,NSC US Equity
c,NTRS US Equity
c,NOC US Equity
c,NVDA US Equity
c,OXY US Equity
c,OMC US Equity
c,OKE US Equity
c,OC US Equity
c,PNC US Equity
c,PRAH US Equity
c,JCP US Equity
c,PEP US Equity
c,PFE US Equity
c,PM US Equity
c,PLXS US Equity
c,PII US Equity
c,POR US Equity
c,PG US Equity
c,PLD US Equity
c,PRU US Equity
c,QCOM US Equity
c,REGN US Equity
c,RSG US Equity
c,ROK US Equity
c,SLG US Equity
c,CRM US Equity
c,SCHN US Equity
c,SRE US Equity
c,SHW US Equity
c,SJM US Equity
c,LUV US Equity
c,S US Equity
c,STT US Equity
c,SCS US Equity
c,TJX US Equity
c,SKT US Equity
c,TPR US Equity
c,TDC US Equity
c,TXN US Equity
c,TXT US Equity
c,MMM US Equity
c,TIF US Equity
c,TRV US Equity
c,TSN US Equity
c,UNP US Equity
c,UAL US Equity
c,UPS US Equity
c,URI US Equity
c,UNH US Equity
c,UNVR US Equity
c,VREX US Equity
c,VTR US Equity
c,VRS US Equity
c,V US Equity
c,VNO US Equity
c,VOYA US Equity
c,WEC US Equity
c,WAB US Equity
c,WBA US Equity
c,WY US Equity
c,WDAY US Equity
c,NED SJ Equity
c,OMN SJ Equity
c,PIK SJ Equity
c,SOL SJ Equity
c,AMS SJ Equity
c,HAR SJ Equity
c,NPN SJ Equity
c,GFI SJ Equity
c,DAW SJ Equity
c,DSY SJ Equity
c,OCE SJ Equity
c,REM SJ Equity
c,COM SJ Equity
c,NHM SJ Equity
c,CPI SJ Equity
c,MTN SJ Equity
c,TKG SJ Equity
c,RLO SJ Equity
c,LEW SJ Equity
c,FSR SJ Equity
c,APN SJ Equity
c,EOH SJ Equity
c,GND SJ Equity
c,INL SJ Equity
c,KIO SJ Equity
c,TON SJ Equity
c,PFG SJ Equity
c,VOD SJ Equity
c,CLS SJ Equity
c,TFG SJ Equity
c,MMI SJ Equity
c,TSH SJ Equity
c,MND SJ Equity
c,SPG SJ Equity
c,SGL SJ Equity
c,ATT SJ Equity
c,RCL SJ Equity
c,RDF SJ Equity
c,HYP SJ Equity
c,BID SJ Equity
c,PPH SJ Equity
c,INDV LN Equity
c,SPX LN Equity
c,JMAT LN Equity
c,19 HK Equity
c,HAVL IN Equity
c,8630 JP Equity
c,2018 HK Equity
c,896 HK Equity
c,ALPEKA MM Equity
c,VEI NO Equity
c,WHS NZ Equity
c,2501 TT Equity
c,3532 TT Equity
c,4904 TT Equity
c,GLOB US Equity
c,APD US Equity
c,AMGN US Equity
c,CSX US Equity
c,CC US Equity
c,DEI US Equity
c,EXPD US Equity
c,FTV US Equity
c,LEA US Equity
c,LNC US Equity
c,VEON US Equity
c,ARL SJ Equity
x,ASX AU Equity
x,CGF AU Equity
x,MGR AU Equity
x,CIEL3 BZ Equity
x,GIL CN Equity
x,ABBN SW Equity
x,CMPC CI Equity
x,ORSTED DC Equity
x,LNA GR Equity
x,AENA SM Equity
x,VK FP Equity
x,EN FP Equity
x,DIM FP Equity
x,HEIA NA Equity
x,BTG LN Equity
x,CKN LN Equity
x,DGE LN Equity
x,MGAM LN Equity
x,MGNS LN Equity
x,SMDS LN Equity
x,KGF LN Equity
x,EXPN LN Equity
x,INCH LN Equity
x,CTEC LN Equity
x,1200 HK Equity
x,494 HK Equity
x,902 HK Equity
x,3 HK Equity
x,293 HK Equity
x,HDFCB IN Equity
x,9532 JP Equity
x,1911 JP Equity
x,6794 JP Equity
x,7011 JP Equity
x,016360 KS Equity
x,981 HK Equity
x,4958 TT Equity
x,TLEVICPO MM Equity
x,ASTRO MK Equity
x,ATEA NO Equity
x,KBANK TB Equity
x,BTS TB Equity
x,6803 TT Equity
x,JCI US Equity
x,ADBE US Equity
x,A US Equity
x,BBY US Equity
x,ITRI US Equity
x,KEYS US Equity
x,KIM US Equity
x,PVH US Equity
x,SYMC US Equity
x,HCI SJ Equity
x,ARI SJ Equity
x,SPP SJ Equity
x,EXX SJ Equity
x,ASR SJ Equity
x,KAP SJ Equity